Chromosome	Sample_Name	mean_meth	median_meth	sd_meth	mean_cov	median_cov	sd_cov
chr1	MsCCSP_control01	0.766749160902737	0.875	0.291473597945956	10.7891336509456	10	6.78309402901142
chr1	MsCCSP_control02	0.697921016908139	0.8	0.356188735888166	3.8413128440646	4	2.94644682361458
chr1	MsCCSP_control03	0.696760429078505	0.8	0.332352873694586	5.36446191190067	5	3.68600689376152
chr1	MsCCSP_control04	0.690914799018152	0.8	0.3182485815049	9.63999310716525	9	5.67506585742249
chr1	MsCCSP_control05	0.644907401095486	1	0.425861199385138	2.16121342494466	2	2.24231304917275
chr1	MsCCSP_control06	0.659193848540804	0.75	0.379478939929104	3.32655169218746	3	2.84758030897018
chr1	MsCCSP_control07	0.651506339048375	0.75	0.385916506107567	3.2342736996849	3	2.79647632898929
chr1	MsCCSP_tumor01	0.628089600620404	0.714285714285714	0.370432427169793	4.1433175787518	4	3.34154992797369
chr1	MsCCSP_tumor02	0.640025415086513	0.75	0.33906851852323	8.74195525612021	8	6.00411175359616
chr1	MsCCSP_tumor02.rfp	0.682449059346097	0.769230769230769	0.308003404835667	8.59157558253491	8	5.73174921164098
chr1	MsCCSP_tumor03	0.607702972854081	0.714285714285714	0.371822585427367	6.66460636674513	6	5.49217433858884
chr1	MsCCSP_tumor03.rfp	0.686310122590676	0.777777777777778	0.316793740845791	7.56160934979634	7	5.3368628513145
chr1	MsCCSP_tumor04	0.652091745103495	0.75	0.339512184697057	8.08886548444292	8	5.28030203845883
chr1	MsCCSP_tumor04.rfp	0.632495028571547	0.727272727272727	0.344907775667577	6.63397017656046	6	4.45688904268239
chr1	MsHOPX_control01	0.708878737257655	0.818181818181818	0.316580946887624	7.94834786801422	8	5.18289610703209
chr1	MsHOPX_tumor01	0.635422933360024	0.736842105263158	0.33570427436505	9.4986354077793	9	5.88359628877589
chr1	MsHOPX_tumor01.rfp	0.615696140542256	0.705882352941177	0.344086849520259	8.45085627840991	8	5.51490678532471
chr1	MsKrt5_tumor01.rfp	0.603469795143473	0.7	0.346373926134527	9.66102057630001	9	6.39376001831244
chr1	MsSPC_control01	0.701572764569101	0.8	0.333822579130152	6.30635356353819	6	4.43865122865638
chr1	MsSPC_control02	0.697646870913944	0.8	0.31017331954214	7.82479082572936	7	5.42275660303593
chr1	MsSPC_control03	0.699331706407851	0.818181818181818	0.33479077215461	7.10581043887451	7	4.9083641441833
chr1	MsSPC_control04	0.669623432621259	0.777777777777778	0.346800028902324	5.61428645801503	5	4.48722186946369
chr1	MsSPC_control05	0.668589387888696	0.75	0.342847512481568	5.39872296184665	5	3.79949527602638
chr1	MsSPC_control06	0.674608335634624	0.785714285714286	0.35174826651709	4.79042303617376	4	3.43686748827574
chr1	MsSPC_tumor01	0.685525473014452	0.8	0.329881245641417	7.36373407357871	7	5.13705660580721
chr1	MsSPC_tumor01.rfp	0.628754357178349	0.727272727272727	0.339880692254434	8.13715758341678	8	5.98192481777341
chr1	MsSPC_tumor02	0.651391992045567	0.75	0.331822713816879	9.76807051163633	9	6.43491017754811
chr1	MsSPC_tumor02.rfp	0.633299837582006	0.714285714285714	0.331615614307437	8.55303190464611	8	5.68529425419854
chr1	MsSPC_tumor03	0.605036841880828	0.6875	0.369262782008113	5.70693586504465	5	3.92815538901469
chr1	MsSPC_tumor03.rfp	0.604055376540025	0.666666666666667	0.36409559210661	5.82864673109216	6	4.06895832642826
chr1	MsSPC_tumor04	0.623259878054418	0.727272727272727	0.357564875728587	6.45533400790223	6	4.6535266715068
chr10	MsCCSP_control01	0.768393343204569	0.875	0.2977937568518	10.5213818353249	10	5.97006858797763
chr10	MsCCSP_control02	0.697867411519727	0.833333333333333	0.360007788595848	3.83609874302581	4	2.31079020308671
chr10	MsCCSP_control03	0.692058628606411	0.8	0.339815975675756	5.30675288681809	5	2.84356636538924
chr10	MsCCSP_control04	0.692212865447012	0.8	0.321754632600321	9.45955997854488	9	4.46843740328566
chr10	MsCCSP_control05	0.646185911230183	1	0.426835193642534	2.15366383462093	2	1.8878930548445
chr10	MsCCSP_control06	0.661682362999232	0.8	0.381311218783614	3.29611807032748	3	2.30850518302929
chr10	MsCCSP_control07	0.652276933941217	0.75	0.387343595980868	3.24136915621619	3	2.31172150118337
chr10	MsCCSP_tumor01	0.643241474902245	0.75	0.371211447938987	4.06369312253266	4	2.65701009590286
chr10	MsCCSP_tumor02	0.656820820347222	0.777777777777778	0.341499626064	8.60682861560362	8	4.73450246559686
chr10	MsCCSP_tumor02.rfp	0.678829907536625	0.777777777777778	0.316752334161221	8.2946198838197	8	4.64799116325716
chr10	MsCCSP_tumor03	0.633378408207567	0.75	0.3642493631523	7.27176129479885	7	3.90189547536893
chr10	MsCCSP_tumor03.rfp	0.679041372725217	0.789473684210526	0.325995920849502	8.30218018611087	8	4.22254586402106
chr10	MsCCSP_tumor04	0.66646904192103	0.785714285714286	0.341961841353767	7.94494779309792	8	4.38298825455916
chr10	MsCCSP_tumor04.rfp	0.647952293701241	0.75	0.346487241488106	6.53635014836795	6	3.67587779406756
chr10	MsHOPX_control01	0.698712495019187	0.8	0.326562606952836	7.82807934506417	8	4.23256796353179
chr10	MsHOPX_tumor01	0.65021399986606	0.75	0.338430237367596	9.36557907144223	9	4.53339231819201
chr10	MsHOPX_tumor01.rfp	0.635461775382343	0.75	0.345400745115359	8.32044540997921	8	4.57636711231114
chr10	MsKrt5_tumor01.rfp	0.62683304522056	0.75	0.346038670687709	9.44631363468252	9	4.98343575651282
chr10	MsSPC_control01	0.698902228303244	0.818181818181818	0.341068149860695	6.32433173879805	6	4.00542384339397
chr10	MsSPC_control02	0.69799152776363	0.8	0.316884274294786	7.74282585888748	7	4.91211029374526
chr10	MsSPC_control03	0.702596684318467	0.833333333333333	0.335467042503168	7.01898313247486	7	3.77490331183311
chr10	MsSPC_control04	0.673787518807958	0.777777777777778	0.345274731127412	5.65118694145007	5	3.30770425848076
chr10	MsSPC_control05	0.667617601240201	0.75	0.347259952512811	5.34431649034155	5	3.06518275105695
chr10	MsSPC_control06	0.67601850986837	0.8	0.354498581785645	4.71981122193873	4	2.75228714077549
chr10	MsSPC_tumor01	0.691035069113313	0.8	0.332286932147667	7.29857689233111	7	4.17998776380437
chr10	MsSPC_tumor01.rfp	0.648116904879281	0.75	0.337732341769688	8.02935212853575	8	4.69350396252326
chr10	MsSPC_tumor02	0.667938327388022	0.785714285714286	0.334624226090065	9.6784277281339	9	5.5030195517265
chr10	MsSPC_tumor02.rfp	0.649571758317854	0.75	0.334051070586333	8.42301131914288	8	4.67896902376543
chr10	MsSPC_tumor03	0.634599518567644	0.75	0.364887350090129	5.59551136934334	5	3.03451276123722
chr10	MsSPC_tumor03.rfp	0.630665317860525	0.75	0.360645573126842	5.69630702906826	5	3.13749161930625
chr10	MsSPC_tumor04	0.648847357938124	0.75	0.350548639373951	6.72811247902797	6	3.60230995088794
chr11	MsCCSP_control01	0.723798137027872	0.857142857142857	0.335286021770074	9.55083513417993	9	10.2166540311888
chr11	MsCCSP_control02	0.64438180427994	0.75	0.384494060507106	3.89781922662024	4	4.64173553074233
chr11	MsCCSP_control03	0.637544591142164	0.75	0.365012594918716	5.40471851940394	5	5.87953824823649
chr11	MsCCSP_control04	0.64208136119346	0.75	0.344659018045834	9.45215129142029	9	8.73346135919342
chr11	MsCCSP_control05	0.597597644081557	0.75	0.43903443372134	2.2612203388181	2	2.98375362525137
chr11	MsCCSP_control06	0.609801884697789	0.7	0.398700292880217	3.45765578719053	3	4.39834869108984
chr11	MsCCSP_control07	0.602998996674686	0.666666666666667	0.402464975321262	3.40549684711493	3	4.28860693437654
chr11	MsCCSP_tumor01	0.603994602672406	0.666666666666667	0.391076272955385	3.87733935379761	3	5.44998909805487
chr11	MsCCSP_tumor02	0.612206670264994	0.727272727272727	0.361503025078295	8.95661985418318	8	9.67445280282023
chr11	MsCCSP_tumor02.rfp	0.633130252540942	0.75	0.340477680725123	8.49278707702576	8	9.23073578437962
chr11	MsCCSP_tumor03	0.592718491674239	0.714285714285714	0.380054944026155	7.32235384407025	7	8.46719540354595
chr11	MsCCSP_tumor03.rfp	0.635592940705819	0.75	0.349230438621021	7.86394640077602	7	8.7608641938274
chr11	MsCCSP_tumor04	0.622310060456577	0.75	0.360974239297862	8.37055857159658	8	8.80181590169176
chr11	MsCCSP_tumor04.rfp	0.609598824895312	0.714285714285714	0.363079916520077	6.74131886628538	6	7.14089817266962
chr11	MsHOPX_control01	0.647282062669293	0.777777777777778	0.352319694528529	8.1853538707037	8	8.94555036776514
chr11	MsHOPX_tumor01	0.610065709493261	0.727272727272727	0.357050100424995	9.6551759374126	9	9.66575033333435
chr11	MsHOPX_tumor01.rfp	0.59626439889574	0.7	0.360985087071846	8.79172104613083	8	9.34544047075481
chr11	MsKrt5_tumor01.rfp	0.587372617965225	0.692307692307692	0.362894535799927	9.65734910540044	9	9.79135686054965
chr11	MsSPC_control01	0.647032889736774	0.777777777777778	0.362972018451242	7.06410521843393	7	7.87714420631729
chr11	MsSPC_control02	0.648021130703339	0.75	0.341453223134913	8.28026492400112	8	10.2921916167718
chr11	MsSPC_control03	0.644710210240853	0.777777777777778	0.363532194635052	7.36927627587289	7	7.7945156628224
chr11	MsSPC_control04	0.619934591075365	0.75	0.367227330368286	6.08550276997036	6	6.85587232369319
chr11	MsSPC_control05	0.62112269798005	0.75	0.369416009006837	5.20786482033615	5	5.43759248852121
chr11	MsSPC_control06	0.628052034502693	0.75	0.37813160675988	4.55323069817423	4	5.04710711181303
chr11	MsSPC_tumor01	0.639404940357039	0.75	0.358768826410032	7.49124245818129	7	8.01901335087033
chr11	MsSPC_tumor01.rfp	0.604465954079304	0.714285714285714	0.356469150382654	8.48033804822275	8	9.11131909275162
chr11	MsSPC_tumor02	0.626242474110564	0.75	0.355498220282322	10.0790574598124	10	10.6387734231161
chr11	MsSPC_tumor02.rfp	0.611644948394346	0.714285714285714	0.352323081784611	8.7016606552517	8	9.15338844139323
chr11	MsSPC_tumor03	0.59335943780952	0.666666666666667	0.383248601848548	5.56772086439593	5	5.42313442221651
chr11	MsSPC_tumor03.rfp	0.58778979046526	0.666666666666667	0.378897834670569	5.66406362728105	5	5.59798260562875
chr11	MsSPC_tumor04	0.603756059741528	0.714285714285714	0.373325294137985	6.56619372796	6	6.86020300844912
chr12	MsCCSP_control01	0.756937944598617	0.866666666666667	0.299744493160104	10.2663669312809	10	8.19802783341156
chr12	MsCCSP_control02	0.68846343017614	0.8	0.36246819714793	3.79359054971275	3	4.92434634466071
chr12	MsCCSP_control03	0.685644013743676	0.8	0.33923821333881	5.26408246326037	5	5.22671617298044
chr12	MsCCSP_control04	0.677627179223809	0.8	0.328216073569162	9.51420551734284	9	6.65658338762003
chr12	MsCCSP_control05	0.639146173957519	1	0.427538004406323	2.17312138355032	2	4.3682266958931
chr12	MsCCSP_control06	0.650221184970458	0.75	0.38414759227081	3.31487045598674	3	5.11630183168516
chr12	MsCCSP_control07	0.640037986937768	0.75	0.391560358355487	3.25196075084876	3	4.79563786831974
chr12	MsCCSP_tumor01	0.623467606183818	0.714285714285714	0.373871362139361	4.06449155540793	4	5.98902101437567
chr12	MsCCSP_tumor02	0.625418277442985	0.727272727272727	0.345952048186891	8.63563841848906	8	6.97351248563515
chr12	MsCCSP_tumor02.rfp	0.669195768071221	0.75	0.316652322754843	8.48230598840283	8	6.87543982151025
chr12	MsCCSP_tumor03	0.588012780692643	0.666666666666667	0.377803044118443	6.88054263137926	7	7.02071326961232
chr12	MsCCSP_tumor03.rfp	0.66568647863276	0.769230769230769	0.330840121077372	7.92766706250927	8	6.37262225568525
chr12	MsCCSP_tumor04	0.641191590274266	0.75	0.344225287885785	8.04525796493003	8	6.36244999878625
chr12	MsCCSP_tumor04.rfp	0.624066834247928	0.714285714285714	0.349105174443406	6.56598983603237	6	5.8619462641325
chr12	MsHOPX_control01	0.696298989476156	0.8	0.325455021371789	7.79876008380936	7	6.2617086610163
chr12	MsHOPX_tumor01	0.627076609239128	0.714285714285714	0.338171229661533	9.31304221343731	9	6.72651098174748
chr12	MsHOPX_tumor01.rfp	0.609203198416551	0.692307692307692	0.345219676078441	8.36167068645536	8	6.57022076030252
chr12	MsKrt5_tumor01.rfp	0.593703439239276	0.666666666666667	0.349046168911187	9.64765325604079	9	7.22423385386824
chr12	MsSPC_control01	0.694477797685735	0.8	0.33884522738829	6.32510577636894	6	5.15922153119048
chr12	MsSPC_control02	0.693811329212707	0.8	0.314154008715012	7.83922609414082	7	6.23506757792869
chr12	MsSPC_control03	0.695572414559628	0.8	0.336091868341743	6.98930230439931	7	6.19465879151717
chr12	MsSPC_control04	0.66046544407167	0.75	0.352167205635837	5.60993917939702	5	5.61990828708346
chr12	MsSPC_control05	0.660189031846971	0.75	0.350005301921064	5.27451279854624	5	5.77132751135159
chr12	MsSPC_control06	0.671789875488716	0.777777777777778	0.354116130642395	4.65034350232749	4	5.98379803318334
chr12	MsSPC_tumor01	0.678809559323601	0.8	0.333920898078799	7.25076587782964	7	6.28572335317562
chr12	MsSPC_tumor01.rfp	0.622983631367013	0.714285714285714	0.339934765439426	8.0293628683382	8	6.73323843018395
chr12	MsSPC_tumor02	0.641002090067892	0.75	0.336676540287166	9.59960788719735	9	7.02759198435651
chr12	MsSPC_tumor02.rfp	0.622709986932629	0.714285714285714	0.335693424028882	8.43602839950074	8	6.51029294399146
chr12	MsSPC_tumor03	0.599946298046065	0.666666666666667	0.370256523667123	5.60872646179177	5	5.61881941419599
chr12	MsSPC_tumor03.rfp	0.598023275133273	0.666666666666667	0.365595362408198	5.69187426340686	5	5.60883089839827
chr12	MsSPC_tumor04	0.62024816279079	0.714285714285714	0.356378982266113	6.68321606186862	6	6.14175600173766
chr13	MsCCSP_control01	0.763647306937831	0.875	0.30343857329826	10.6634335828952	10	6.24185308252399
chr13	MsCCSP_control02	0.697074131322423	0.833333333333333	0.360411931759929	3.82253920124949	4	2.81509876172491
chr13	MsCCSP_control03	0.693632990940523	0.8	0.338398591816929	5.36306106942203	5	3.27166382533672
chr13	MsCCSP_control04	0.690313840305684	0.8	0.322037404111352	9.51234038461749	9	5.20269283369148
chr13	MsCCSP_control05	0.648594889246759	1	0.425059806114861	2.15528139889083	2	2.11597685639735
chr13	MsCCSP_control06	0.662628108959314	0.777777777777778	0.379423830223189	3.29901786101253	3	2.67294242549353
chr13	MsCCSP_control07	0.652699568597536	0.75	0.386945963829001	3.22650412318309	3	2.67527205282869
chr13	MsCCSP_tumor01	0.640977777679119	0.75	0.370546092024749	4.11517523986439	4	3.24946362187258
chr13	MsCCSP_tumor02	0.653106395799206	0.769230769230769	0.342499609591011	8.61612814889996	8	5.13842844340399
chr13	MsCCSP_tumor02.rfp	0.676882250629935	0.777777777777778	0.317471533675552	8.50024548567059	8	5.06345314409465
chr13	MsCCSP_tumor03	0.637325489641763	0.75	0.35972798206162	7.34286878191771	7	4.69580601375673
chr13	MsCCSP_tumor03.rfp	0.685519947983513	0.8	0.322947309375398	7.49919325962412	7	4.57532451212572
chr13	MsCCSP_tumor04	0.665910607174681	0.777777777777778	0.341271510855735	8.00394551309664	8	4.8410350742726
chr13	MsCCSP_tumor04.rfp	0.64739838242367	0.75	0.344920216352482	6.75928827659059	6	4.19086423848695
chr13	MsHOPX_control01	0.699772322826353	0.8125	0.325947555276725	7.82947586606975	8	4.59771746090066
chr13	MsHOPX_tumor01	0.657452449736253	0.769230769230769	0.33411908016673	9.41848746214442	9	5.00445172791044
chr13	MsHOPX_tumor01.rfp	0.638524656101043	0.75	0.341636190135231	8.37226059373659	8	4.97357030211863
chr13	MsKrt5_tumor01.rfp	0.619951106892707	0.727272727272727	0.347132256582457	9.59239396381943	9	5.74123862616366
chr13	MsSPC_control01	0.701579884723097	0.818181818181818	0.339524870673704	6.24294157275845	6	4.08479834303311
chr13	MsSPC_control02	0.70095996431662	0.8	0.314904246356703	7.76148747686291	7	4.81176811463993
chr13	MsSPC_control03	0.692693395370279	0.818181818181818	0.34346417220898	7.1003366808885	7	4.45952871696434
chr13	MsSPC_control04	0.668035243318951	0.777777777777778	0.350433921793338	5.59048811297348	5	4.17306125108707
chr13	MsSPC_control05	0.668719594059905	0.75	0.345482093256866	5.37758697405064	5	3.4446976380104
chr13	MsSPC_control06	0.676552671716775	0.8	0.353807697330466	4.74216742430837	4	3.18984863763974
chr13	MsSPC_tumor01	0.686721819484539	0.8	0.334888113147606	7.32678595142638	7	4.47679840018153
chr13	MsSPC_tumor01.rfp	0.642412668862152	0.75	0.340618733347286	8.07805108127082	8	5.00326478109069
chr13	MsSPC_tumor02	0.665014439686978	0.777777777777778	0.333694513004561	9.6658636400399	9	5.49337547919066
chr13	MsSPC_tumor02.rfp	0.648840037209633	0.75	0.332849903506918	8.43756323645103	8	4.82895937731905
chr13	MsSPC_tumor03	0.621627692123009	0.75	0.370312361755055	5.68448246445072	5	3.60172216458268
chr13	MsSPC_tumor03.rfp	0.619819789235335	0.727272727272727	0.365547997522797	5.80334098939335	6	3.67060470454408
chr13	MsSPC_tumor04	0.636998506447635	0.75	0.358648944497753	6.41324846875593	6	4.1351769855524
chr14	MsCCSP_control01	0.76093456545897	0.875	0.296127275189629	10.5806981119526	10	9.56447064882672
chr14	MsCCSP_control02	0.701775556958343	0.833333333333333	0.354725983978049	3.85843726934961	4	6.99402207544059
chr14	MsCCSP_control03	0.697081932282042	0.8	0.333516316919083	5.3075162541182	5	6.44472532924565
chr14	MsCCSP_control04	0.694754678975092	0.8	0.314491671495071	9.3859834083092	9	7.29206210693602
chr14	MsCCSP_control05	0.647778990368148	1	0.424782344898246	2.19137670196672	2	5.79584807092122
chr14	MsCCSP_control06	0.658319641500948	0.75	0.380303978057927	3.34589912023302	3	7.51174591002736
chr14	MsCCSP_control07	0.6508451020656	0.75	0.386332273810667	3.25902857748225	3	7.0489890884314
chr14	MsCCSP_tumor01	0.624947374764214	0.714285714285714	0.370757465271304	4.11420500811758	4	8.23674088815945
chr14	MsCCSP_tumor02	0.625448013785203	0.727272727272727	0.345059101181968	8.61559305080221	8	8.15425005136717
chr14	MsCCSP_tumor02.rfp	0.670807800261982	0.75	0.315832868609886	8.49256231330197	8	8.08156152846584
chr14	MsCCSP_tumor03	0.597032143681834	0.7	0.366882299879948	7.38517004436997	7	8.5827154774599
chr14	MsCCSP_tumor03.rfp	0.674011689975436	0.777777777777778	0.32102519944219	8.26123964948561	8	7.16752350648185
chr14	MsCCSP_tumor04	0.646612517456353	0.75	0.339755917913877	7.89136764452984	8	7.24966456188494
chr14	MsCCSP_tumor04.rfp	0.626550325183406	0.714285714285714	0.345133333415815	6.4984646314097	6	6.88194765821283
chr14	MsHOPX_control01	0.699695591546113	0.8	0.324043739754572	7.77660904164831	7	8.09465136247625
chr14	MsHOPX_tumor01	0.618343489410509	0.714285714285714	0.34358381681296	9.36153189041976	9	7.6724932240207
chr14	MsHOPX_tumor01.rfp	0.598395614407743	0.666666666666667	0.350322425724684	8.31107544373003	8	7.66676838820397
chr14	MsKrt5_tumor01.rfp	0.589691022658758	0.666666666666667	0.349945598076187	9.54992999043772	9	8.15365595793488
chr14	MsSPC_control01	0.705618081809467	0.818181818181818	0.334135575020018	6.19892671498121	6	5.63190507434363
chr14	MsSPC_control02	0.701923416400543	0.8	0.310111794420473	7.71908181347421	7	7.00223272370948
chr14	MsSPC_control03	0.705029773306708	0.818181818181818	0.32985721069449	6.95362430683146	7	7.21027524189876
chr14	MsSPC_control04	0.672059764971289	0.777777777777778	0.345166705573549	5.5419513365242	5	7.31310999420135
chr14	MsSPC_control05	0.672270415132634	0.75	0.340602187681938	5.38607079894496	5	8.22891917709713
chr14	MsSPC_control06	0.680214115085547	0.8	0.34808908291969	4.76809770264736	4	8.2949476816314
chr14	MsSPC_tumor01	0.68750505509717	0.8	0.32652075689348	7.24315046791436	7	7.66643116931228
chr14	MsSPC_tumor01.rfp	0.625200674875503	0.714285714285714	0.337563213530907	7.95944586295597	8	8.22001156655356
chr14	MsSPC_tumor02	0.640855658908001	0.75	0.333753664607144	9.56335105494955	9	8.22257890208224
chr14	MsSPC_tumor02.rfp	0.625156680744158	0.714285714285714	0.333138278621511	8.38270777638319	8	7.6358578206501
chr14	MsSPC_tumor03	0.599788829892746	0.666666666666667	0.367563909873071	5.61050464535966	5	6.80018339827108
chr14	MsSPC_tumor03.rfp	0.596369138971536	0.666666666666667	0.362757852769527	5.72311046335975	5	6.78195588473879
chr14	MsSPC_tumor04	0.621065671992384	0.714285714285714	0.353393430295463	6.47339482809963	6	7.17408633160542
chr15	MsCCSP_control01	0.758985347314594	0.875	0.303424834242958	10.136416114501	10	7.05413011279287
chr15	MsCCSP_control02	0.682895251449956	0.8	0.36537448313316	3.82653466307044	4	3.73937813741089
chr15	MsCCSP_control03	0.676634482560137	0.8	0.344335984979124	5.30720632768924	5	4.59365441531444
chr15	MsCCSP_control04	0.677199945190649	0.8	0.3274573907839	9.44550278748518	9	6.07049344125737
chr15	MsCCSP_control05	0.631805485249843	1	0.430205006922222	2.16824705041055	2	2.81573927163915
chr15	MsCCSP_control06	0.64618853781881	0.75	0.385333554377298	3.33866388006136	3	3.79705514186058
chr15	MsCCSP_control07	0.638313434850944	0.75	0.391011306568022	3.26373207961733	3	3.68156144026165
chr15	MsCCSP_tumor01	0.622039526823564	0.714285714285714	0.377690555230852	3.98234424585741	4	4.51318103656352
chr15	MsCCSP_tumor02	0.631965606346428	0.75	0.346551380896972	9.22261405166289	9	6.28656977150947
chr15	MsCCSP_tumor02.rfp	0.665698592264451	0.75	0.319101508617045	8.98686393535417	9	6.24681965553435
chr15	MsCCSP_tumor03	0.607415197469806	0.714285714285714	0.368628073419835	7.27622841313791	7	5.781892910449
chr15	MsCCSP_tumor03.rfp	0.672979921232514	0.777777777777778	0.326055960438033	8.75179567180438	9	5.9398537955075
chr15	MsCCSP_tumor04	0.64338240649857	0.75	0.346829893489744	8.17316759642228	8	5.94072907788597
chr15	MsCCSP_tumor04.rfp	0.627358263322299	0.727272727272727	0.351443440624688	6.61283318710379	6	5.36381992963084
chr15	MsHOPX_control01	0.691393817896746	0.8	0.328954656942291	7.92013072644917	8	5.76812035485085
chr15	MsHOPX_tumor01	0.634227503494841	0.75	0.34014739516856	9.47549643414172	9	6.08886791581071
chr15	MsHOPX_tumor01.rfp	0.616055008448212	0.714285714285714	0.347152877874506	8.53820984052898	8	6.06519179135127
chr15	MsKrt5_tumor01.rfp	0.60218213493048	0.7	0.34943401456644	9.56734439701776	9	6.55219834594502
chr15	MsSPC_control01	0.686320504909033	0.8	0.343031995066946	6.60377989937921	6	5.15236467977796
chr15	MsSPC_control02	0.685046003257627	0.8	0.320388655279506	7.96714016123749	8	5.88556064859545
chr15	MsSPC_control03	0.690476695722083	0.8	0.339043884717337	7.13011813239245	7	5.50596848229288
chr15	MsSPC_control04	0.656590072579515	0.75	0.352068932879745	5.8045697428546	6	5.09467217482228
chr15	MsSPC_control05	0.658597392582601	0.75	0.349836465138363	5.24552919178487	5	4.83445933388943
chr15	MsSPC_control06	0.666486155538636	0.769230769230769	0.3576204447945	4.62538819532028	4	4.59967246753647
chr15	MsSPC_tumor01	0.677276560309918	0.8	0.335902252267772	7.35126087105809	7	5.65583552440928
chr15	MsSPC_tumor01.rfp	0.628506393387253	0.727272727272727	0.34044432351994	8.19045785481463	8	6.04416309542802
chr15	MsSPC_tumor02	0.645700106703235	0.75	0.338687225815028	9.76984340728663	9	6.32891281315743
chr15	MsSPC_tumor02.rfp	0.627399277472629	0.714285714285714	0.338012643837875	8.49364698262112	8	5.87438803651213
chr15	MsSPC_tumor03	0.61276087676424	0.714285714285714	0.368813396359732	5.56461642133376	5	4.94156375219714
chr15	MsSPC_tumor03.rfp	0.607114185414403	0.666666666666667	0.365223326374558	5.66652036408325	5	5.06330884427975
chr15	MsSPC_tumor04	0.628146443891774	0.75	0.352728285206256	7.05406778581992	7	5.4256127471468
chr16	MsCCSP_control01	0.77479314035241	0.875	0.285753441317227	10.8721766538565	10	6.20295117111815
chr16	MsCCSP_control02	0.705942413102455	0.833333333333333	0.352105510865207	3.89008017269776	4	3.96634164582972
chr16	MsCCSP_control03	0.699812777468569	0.8	0.331061607413743	5.39406937602863	5	4.06455888376009
chr16	MsCCSP_control04	0.698653329128177	0.8	0.31329596800961	9.63505242406501	9	6.04783698141835
chr16	MsCCSP_control05	0.652593823690729	1	0.422672490759707	2.16827543153964	2	2.48776012507257
chr16	MsCCSP_control06	0.670365814292196	0.8	0.374058373772281	3.32950093799345	3	3.88295076091332
chr16	MsCCSP_control07	0.660146021316566	0.75	0.38182317831767	3.26660182880598	3	4.12081035481465
chr16	MsCCSP_tumor01	0.646226274245813	0.75	0.364403847390812	4.173282651216	4	5.00412467195507
chr16	MsCCSP_tumor02	0.649145306534289	0.75	0.340607285834012	8.69597732310363	8	5.83980203579475
chr16	MsCCSP_tumor02.rfp	0.680919676515769	0.777777777777778	0.310907677222667	8.59109493831898	8	5.6645149619952
chr16	MsCCSP_tumor03	0.624046308878085	0.75	0.360472715225791	7.46738442141448	7	6.60947505367578
chr16	MsCCSP_tumor03.rfp	0.68635086019882	0.777777777777778	0.318179469450045	7.55934691893435	7	5.95109472284909
chr16	MsCCSP_tumor04	0.669400160124317	0.777777777777778	0.33435264069943	8.0308359728713	8	5.17820841148839
chr16	MsCCSP_tumor04.rfp	0.645247126279176	0.75	0.341279105415914	6.60245502352224	6	4.26025893136745
chr16	MsHOPX_control01	0.710001740337484	0.818181818181818	0.316648713872574	7.931935829057	8	5.22225467681039
chr16	MsHOPX_tumor01	0.652762130318137	0.75	0.331344619790078	9.52167641581895	9	5.98681222992046
chr16	MsHOPX_tumor01.rfp	0.634190387103977	0.733333333333333	0.339867246445861	8.44603318907551	8	5.20914962136384
chr16	MsKrt5_tumor01.rfp	0.619916969268719	0.714285714285714	0.342848525855963	9.61352187461647	9	5.82375814549585
chr16	MsSPC_control01	0.705803085149962	0.818181818181818	0.333373630184948	6.29719172177543	6	5.70221229830378
chr16	MsSPC_control02	0.705905914823405	0.8	0.307411309493256	7.82360024505834	7	6.31364904389287
chr16	MsSPC_control03	0.708690674400874	0.833333333333333	0.328713552586856	7.09695471016798	7	5.31364269963082
chr16	MsSPC_control04	0.677396345404109	0.777777777777778	0.341873061582993	5.66810364235573	5	6.21677313822684
chr16	MsSPC_control05	0.675970813187123	0.777777777777778	0.338208647795394	5.44398457273363	5	3.59259249849248
chr16	MsSPC_control06	0.684440662336133	0.8	0.34543926943718	4.82370164468759	5	3.56214822056282
chr16	MsSPC_tumor01	0.696734251076584	0.8	0.324000547687123	7.36664854982954	7	4.9894180606584
chr16	MsSPC_tumor01.rfp	0.646481085648431	0.75	0.333429019013529	8.11319467738563	8	5.45073094857796
chr16	MsSPC_tumor02	0.663949952260398	0.777777777777778	0.329510993082333	9.76522998044559	9	5.82900911167531
chr16	MsSPC_tumor02.rfp	0.646174103673147	0.75	0.329746716843116	8.53625101742275	8	4.92756132283913
chr16	MsSPC_tumor03	0.622369158341999	0.75	0.366146388286097	5.71023551350231	5	3.79250975477105
chr16	MsSPC_tumor03.rfp	0.618258155564874	0.714285714285714	0.362011344474992	5.81814208655848	6	3.78331350740668
chr16	MsSPC_tumor04	0.641444929635453	0.75	0.350092504910223	6.38311467657395	6	4.79929303339272
chr17	MsCCSP_control01	0.74887481297568	0.875	0.316071907877534	9.9328304207144	9	8.98809744310234
chr17	MsCCSP_control02	0.671178309626274	0.8	0.372261455716017	4.1116637103773	4	10.8491600846111
chr17	MsCCSP_control03	0.666155350067949	0.777777777777778	0.351759218294918	5.58186306087955	5	11.8136672027102
chr17	MsCCSP_control04	0.665147362857923	0.785714285714286	0.33658579604975	9.83785590433028	9	18.2033474070739
chr17	MsCCSP_control05	0.620582776402285	1	0.433910321680078	2.3930484428519	2	7.05429358666764
chr17	MsCCSP_control06	0.634620098403152	0.75	0.390800999298062	3.67580184756155	3	11.8034709404233
chr17	MsCCSP_control07	0.625722563286001	0.75	0.396557671712846	3.67543885674727	3	14.024807426424
chr17	MsCCSP_tumor01	0.619048472048359	0.714285714285714	0.384271042080381	4.23490461227621	4	12.4159199410178
chr17	MsCCSP_tumor02	0.629740467024711	0.75	0.353962930557662	9.54398420058821	9	18.6168086679583
chr17	MsCCSP_tumor02.rfp	0.654944351660468	0.75	0.32937097076134	9.17824350946317	8	17.4349630738976
chr17	MsCCSP_tumor03	0.606565399083306	0.75	0.375194351163302	7.78574824032289	7	21.3182636124744
chr17	MsCCSP_tumor03.rfp	0.660485833738192	0.777777777777778	0.337847621247945	9.33475847146634	9	20.7517144810327
chr17	MsCCSP_tumor04	0.640198559932026	0.75	0.354732537599776	8.61705445042119	8	17.0194630481966
chr17	MsCCSP_tumor04.rfp	0.624349601566627	0.75	0.358040550426225	6.94490422935347	6	12.5031588695774
chr17	MsHOPX_control01	0.678039448315726	0.8	0.336962179231591	8.31347932992739	8	15.6501607895875
chr17	MsHOPX_tumor01	0.630896005228294	0.75	0.345089680252512	9.88407208296181	9	18.0091257968511
chr17	MsHOPX_tumor01.rfp	0.619261702486375	0.714285714285714	0.35003823722802	8.92899057679552	8	14.9387152737488
chr17	MsKrt5_tumor01.rfp	0.602706700840508	0.705882352941177	0.354900658091718	9.94676899129761	9	17.4357560800982
chr17	MsSPC_control01	0.674204610212284	0.8	0.35011914229659	7.24186675582796	6	21.4809311822201
chr17	MsSPC_control02	0.673433088196861	0.777777777777778	0.327966717933158	8.50770871217762	8	20.2395578873576
chr17	MsSPC_control03	0.679150835178503	0.8	0.346503024566787	7.55852820575216	7	17.0043457729143
chr17	MsSPC_control04	0.648773132257332	0.75	0.35697932642868	6.39971932322845	5	22.399658505433
chr17	MsSPC_control05	0.6450374588304	0.75	0.35939677669888	5.33061548414472	5	7.24715436884444
chr17	MsSPC_control06	0.656296134324935	0.75	0.365310902107413	4.72323160084462	4	8.04966026140261
chr17	MsSPC_tumor01	0.669583192965898	0.8	0.342774647768294	7.64657737814606	7	13.8382596373161
chr17	MsSPC_tumor01.rfp	0.625615665755559	0.727272727272727	0.345922192954029	8.62911840942121	8	16.8856627996371
chr17	MsSPC_tumor02	0.646403939939387	0.764705882352941	0.343632484702539	10.3059729505729	10	17.4305291513909
chr17	MsSPC_tumor02.rfp	0.630386189624612	0.733333333333333	0.342532388677787	8.82269918820473	8	14.1255168213386
chr17	MsSPC_tumor03	0.612686643981385	0.714285714285714	0.373049518789755	5.74846539095462	5	10.4097896509435
chr17	MsSPC_tumor03.rfp	0.608189871660331	0.714285714285714	0.368921101285157	5.83888476980541	5	9.90344437172711
chr17	MsSPC_tumor04	0.627219926868165	0.75	0.360025237987383	6.97521859267951	6	15.4562998237408
chr18	MsCCSP_control01	0.772232522783793	0.875	0.286575853130197	10.7875031157901	10	6.35898133628991
chr18	MsCCSP_control02	0.699141078662128	0.833333333333333	0.356455051280503	3.84071715812529	4	2.80468806279456
chr18	MsCCSP_control03	0.696558592806647	0.8	0.333112563655323	5.37280685980087	5	3.50759982948873
chr18	MsCCSP_control04	0.697049838801483	0.8	0.314380339533085	9.60478875529313	9	5.27380319471793
chr18	MsCCSP_control05	0.650966717657315	1	0.423807607093989	2.15744804308562	2	2.11457011237298
chr18	MsCCSP_control06	0.665453934832553	0.8	0.376992478386722	3.3157267139434	3	2.7752952157697
chr18	MsCCSP_control07	0.654996565756612	0.75	0.384714191889112	3.24637946173374	3	2.8522654949127
chr18	MsCCSP_tumor01	0.642353575213838	0.75	0.36831034473667	4.097036059316	4	3.46709713821854
chr18	MsCCSP_tumor02	0.652901047266874	0.75	0.336916645656808	8.74090028821321	8	5.25187245199804
chr18	MsCCSP_tumor02.rfp	0.684331847080723	0.777777777777778	0.308305900287781	8.56542275765812	8	5.15558702572099
chr18	MsCCSP_tumor03	0.626434365990464	0.75	0.359868328927815	7.40145919733823	7	5.10440474855198
chr18	MsCCSP_tumor03.rfp	0.686666925652654	0.777777777777778	0.318444662414584	7.19107321224873	7	4.82379401481502
chr18	MsCCSP_tumor04	0.665934438832105	0.777777777777778	0.337725444280005	8.07431553619042	8	4.87547648884413
chr18	MsCCSP_tumor04.rfp	0.645236519764712	0.75	0.342659609536561	6.62676180067717	6	4.09487972699179
chr18	MsHOPX_control01	0.708498520095514	0.818181818181818	0.319154288424205	7.92412712656021	8	4.67862785912054
chr18	MsHOPX_tumor01	0.646620741107867	0.75	0.337515462760047	9.51183754627809	9	5.28424786942349
chr18	MsHOPX_tumor01.rfp	0.629036873219824	0.727272727272727	0.344239614734729	8.47455113818532	8	4.90697332185435
chr18	MsKrt5_tumor01.rfp	0.623907651125407	0.727272727272727	0.342205235813692	9.59813196042134	9	5.59745293038215
chr18	MsSPC_control01	0.702921568093943	0.818181818181818	0.33454377753257	6.30088381289411	6	3.95771793331673
chr18	MsSPC_control02	0.701223477724406	0.8	0.310431678199717	7.83098730931477	7	4.88949439968227
chr18	MsSPC_control03	0.704887614236487	0.833333333333333	0.331865307936888	7.07960872926029	7	4.41696240768677
chr18	MsSPC_control04	0.674275345838242	0.777777777777778	0.344949809247998	5.6241706319443	5	4.32618595895029
chr18	MsSPC_control05	0.672884956731995	0.75	0.340311532078411	5.43045970893718	5	3.6711208859243
chr18	MsSPC_control06	0.681401961776876	0.8	0.347771926695003	4.78510071428463	4	3.33074767485096
chr18	MsSPC_tumor01	0.693748416449366	0.8	0.325826855993304	7.36336173130376	7	4.60320657372053
chr18	MsSPC_tumor01.rfp	0.646617218173029	0.75	0.333713207212805	8.10632536772826	8	4.96566172875875
chr18	MsSPC_tumor02	0.662780598077867	0.777777777777778	0.329902469031773	9.75547834795251	9	5.40701337090658
chr18	MsSPC_tumor02.rfp	0.646776414449669	0.75	0.329390444493028	8.50339164531568	8	4.73431683152738
chr18	MsSPC_tumor03	0.62532083953797	0.75	0.365124977361399	5.68150203394164	5	3.68431383024651
chr18	MsSPC_tumor03.rfp	0.623376342120607	0.714285714285714	0.360550954113694	5.78305428075965	6	3.72070497228241
chr18	MsSPC_tumor04	0.642602281484859	0.75	0.348869517659471	7.01585099822766	7	4.32626185419178
chr19	MsCCSP_control01	0.736828222712619	0.875	0.326760927921873	9.93426575006637	9	5.41810826693241
chr19	MsCCSP_control02	0.661846548162735	0.8	0.377762221973324	3.85101914181858	4	2.37700315589596
chr19	MsCCSP_control03	0.656811501369734	0.75	0.357276891356211	5.35133716980988	5	2.77626830768947
chr19	MsCCSP_control04	0.655285893550643	0.777777777777778	0.33954840521427	9.35780521726056	9	4.23277630892554
chr19	MsCCSP_control05	0.612345595686693	1	0.436577357187934	2.1890106783516	2	2.28878645741931
chr19	MsCCSP_control06	0.626846508190926	0.75	0.393932685402709	3.34902814944738	3	2.42094981916066
chr19	MsCCSP_control07	0.618037983758398	0.75	0.398440390713615	3.30787476772201	3	2.55540310118803
chr19	MsCCSP_tumor01	0.618090528781403	0.714285714285714	0.384060561460158	3.91259035894926	4	2.50293530209553
chr19	MsCCSP_tumor02	0.628193013435937	0.75	0.353984985165499	9.4235207205991	9	4.49824230909984
chr19	MsCCSP_tumor02.rfp	0.645756167442394	0.75	0.334438017300732	8.32450174441094	8	4.12916867000635
chr19	MsCCSP_tumor03	0.604353220456533	0.727272727272727	0.375058473321382	7.25024284342776	7	3.72289935066051
chr19	MsCCSP_tumor03.rfp	0.651080808313863	0.75	0.342813704734329	7.58123168704636	7	3.74981625660308
chr19	MsCCSP_tumor04	0.639775241088278	0.75	0.354591239318019	8.05383959332885	8	3.97984220415855
chr19	MsCCSP_tumor04.rfp	0.625627426459286	0.75	0.357285427008167	6.54036347667083	6	3.36708685095815
chr19	MsHOPX_control01	0.664209873827618	0.785714285714286	0.344314651070429	7.88491460386728	8	3.84739593153943
chr19	MsHOPX_tumor01	0.626556373524308	0.75	0.350887810067567	9.43710537458734	9	4.2735661917721
chr19	MsHOPX_tumor01.rfp	0.613237524138468	0.714285714285714	0.355692341797001	8.45458772444593	8	4.37751042114439
chr19	MsKrt5_tumor01.rfp	0.599229924192827	0.714285714285714	0.361015042907043	9.41156707782082	9	4.61799934580942
chr19	MsSPC_control01	0.662547010088937	0.8	0.358425362539528	6.58010825465331	6	3.4355786564923
chr19	MsSPC_control02	0.659579894906209	0.769230769230769	0.336270984236782	7.89241432567075	8	4.01639255733056
chr19	MsSPC_control03	0.654686901226477	0.8	0.363699215436207	7.12874742543291	7	3.48671465316005
chr19	MsSPC_control04	0.633117938173031	0.75	0.364527922048102	5.77419961937391	5	3.43809620091162
chr19	MsSPC_control05	0.628417590969048	0.75	0.367916089044479	5.23514214911511	5	2.96506560537757
chr19	MsSPC_control06	0.639870015697857	0.75	0.372926165526064	4.57491902727431	4	2.67007341611137
chr19	MsSPC_tumor01	0.652513338277972	0.777777777777778	0.354617635139729	7.28471714481625	7	3.72547604738087
chr19	MsSPC_tumor01.rfp	0.617432079687208	0.727272727272727	0.354156528184089	8.11482907949633	8	4.09036405152203
chr19	MsSPC_tumor02	0.638279220891291	0.75	0.350807750699307	9.69024478412584	9	4.51735412842177
chr19	MsSPC_tumor02.rfp	0.621823456933988	0.727272727272727	0.348221882009599	8.4103223214051	8	4.00378935065231
chr19	MsSPC_tumor03	0.606710339132629	0.727272727272727	0.381316886705895	5.5410075458194	5	2.8265012412468
chr19	MsSPC_tumor03.rfp	0.600327876214045	0.714285714285714	0.37700177372678	5.63516026208606	5	2.88187698220182
chr19	MsSPC_tumor04	0.61376640602741	0.75	0.369899544400457	6.76341686615326	7	3.31709507873196
chr2	MsCCSP_control01	0.748395094124442	0.875	0.313421549597627	10.1728142959005	10	11.690805244833
chr2	MsCCSP_control02	0.675054696394171	0.8	0.370014496885866	3.88130919063285	4	10.2868417186249
chr2	MsCCSP_control03	0.668661759092123	0.777777777777778	0.349494455106252	5.37273763544302	5	10.3867440314113
chr2	MsCCSP_control04	0.67062812355331	0.785714285714286	0.328824578698366	9.47713548814703	9	10.4082003381816
chr2	MsCCSP_control05	0.623958647007147	1	0.432563097275168	2.25229949944704	2	10.8184857378781
chr2	MsCCSP_control06	0.638387813904235	0.75	0.38886680895054	3.39311056251373	3	10.3397059596471
chr2	MsCCSP_control07	0.63123208870666	0.75	0.393187133855023	3.34376575447068	3	10.2263858158638
chr2	MsCCSP_tumor01	0.622486829800973	0.714285714285714	0.378025189932336	4.06045977839649	4	10.5275289734189
chr2	MsCCSP_tumor02	0.627993925666721	0.75	0.348966127128017	8.76565356761249	8	11.1751526133886
chr2	MsCCSP_tumor02.rfp	0.65619291200059	0.75	0.325509730733053	8.55316907705032	8	11.1202223100176
chr2	MsCCSP_tumor03	0.605106528792215	0.714285714285714	0.369672642214781	7.32812575956015	7	11.1072747414411
chr2	MsCCSP_tumor03.rfp	0.657162711907111	0.75	0.333663608920689	8.466922943348	8	10.8655077590685
chr2	MsCCSP_tumor04	0.645259976518159	0.75	0.347172903736634	8.13726415654218	8	10.822822772469
chr2	MsCCSP_tumor04.rfp	0.625890220667006	0.714285714285714	0.350495421303869	6.65290763807451	6	10.6836215201685
chr2	MsHOPX_control01	0.678997092298026	0.8	0.334266270291738	8.00231618952976	8	10.7927361324606
chr2	MsHOPX_tumor01	0.628601498780555	0.75	0.343921990928969	9.50513426001088	9	10.9673936426851
chr2	MsHOPX_tumor01.rfp	0.610926388207248	0.714285714285714	0.349413981931828	8.54992409088471	8	10.9578068922065
chr2	MsKrt5_tumor01.rfp	0.598671860421494	0.7	0.352299977030663	9.59548313080147	9	11.3273171288108
chr2	MsSPC_control01	0.674481399533771	0.8	0.348987325385447	6.59033217032811	6	10.1759777801387
chr2	MsSPC_control02	0.67366214545808	0.777777777777778	0.326803123033802	7.92239316886555	7	10.7747055520361
chr2	MsSPC_control03	0.672712258236423	0.8	0.349946441629745	7.18195199547527	7	10.7476120158743
chr2	MsSPC_control04	0.643645052787658	0.75	0.35855408328599	5.84131941887347	5	10.4720442905007
chr2	MsSPC_control05	0.647198932958242	0.75	0.354708215161695	5.33243883029043	5	10.3740842631989
chr2	MsSPC_control06	0.653546657767701	0.75	0.363429204567409	4.69651604872178	4	10.6048108968709
chr2	MsSPC_tumor01	0.665086101657576	0.777777777777778	0.342384022582832	7.41103415299586	7	10.8574558881102
chr2	MsSPC_tumor01.rfp	0.621918204025101	0.714285714285714	0.345555289843848	8.22880721650712	8	11.0949935364031
chr2	MsSPC_tumor02	0.640372961806322	0.75	0.342897121956074	9.82303994352642	9	11.2780535889912
chr2	MsSPC_tumor02.rfp	0.624601781917319	0.714285714285714	0.340872857591927	8.55075231598456	8	11.0108999445776
chr2	MsSPC_tumor03	0.606307179028019	0.714285714285714	0.371396954570088	5.63062277971197	5	10.5078142486859
chr2	MsSPC_tumor03.rfp	0.602904800202871	0.666666666666667	0.366940306569828	5.73942424575343	5	10.5254111316889
chr2	MsSPC_tumor04	0.612530992995851	0.714285714285714	0.365683834254414	6.44066896167656	6	10.7402239789247
chr3	MsCCSP_control01	0.768512133809852	0.875	0.28721778317331	10.9640156385954	10	6.01501391481336
chr3	MsCCSP_control02	0.7021609489351	0.833333333333333	0.354355915924567	3.84502465188027	4	2.85007183722983
chr3	MsCCSP_control03	0.697463609616442	0.8	0.332889968251485	5.33122126755214	5	3.27059697762714
chr3	MsCCSP_control04	0.701366859472655	0.8	0.310304381144534	9.51183963301826	9	5.06915588424173
chr3	MsCCSP_control05	0.648203486014543	1	0.425575952506702	2.13702344483771	2	2.18238204102665
chr3	MsCCSP_control06	0.667596481883868	0.8	0.375723327125701	3.28185260402744	3	3.07869755764641
chr3	MsCCSP_control07	0.660114234200317	0.75	0.382495711823717	3.19773949269727	3	3.12868241117674
chr3	MsCCSP_tumor01	0.632323898320725	0.714285714285714	0.367075976427191	4.15356001228571	4	3.66673171835018
chr3	MsCCSP_tumor02	0.633304798279083	0.75	0.3428999883054	8.23097344175786	8	4.98267044411083
chr3	MsCCSP_tumor02.rfp	0.679245099522505	0.769230769230769	0.311028842849488	8.23037171089393	8	4.97580445012489
chr3	MsCCSP_tumor03	0.61011285791435	0.714285714285714	0.361651806420165	7.38805256589037	7	5.12385650280173
chr3	MsCCSP_tumor03.rfp	0.680978608589376	0.777777777777778	0.319845083318876	7.03896511661576	7	4.71804312114279
chr3	MsCCSP_tumor04	0.652000928981499	0.75	0.34087471583686	7.85235587077497	8	4.68246030061172
chr3	MsCCSP_tumor04.rfp	0.63150326774731	0.714285714285714	0.346144111113851	6.42193095092106	6	3.89988690007842
chr3	MsHOPX_control01	0.706758679270332	0.818181818181818	0.319794754284907	7.72583430163324	7	4.48780523202108
chr3	MsHOPX_tumor01	0.638246313122553	0.75	0.333097866199437	9.35027462927288	9	5.08675888106657
chr3	MsHOPX_tumor01.rfp	0.61844448248905	0.705882352941177	0.341657256841773	8.19862965917669	8	4.75167540570116
chr3	MsKrt5_tumor01.rfp	0.601508602301691	0.692307692307692	0.346414147882971	9.44513263155216	9	5.47447190499114
chr3	MsSPC_control01	0.706654579644437	0.818181818181818	0.334655029815181	6.04054775757994	6	4.42141427075681
chr3	MsSPC_control02	0.703015794263121	0.8	0.30987839582846	7.57486559783114	7	5.16584072401243
chr3	MsSPC_control03	0.708259173920973	0.833333333333333	0.329518377266926	6.92829530069976	7	4.46481139723712
chr3	MsSPC_control04	0.674101633090395	0.777777777777778	0.345988713158947	5.49800121025054	5	4.56053921699993
chr3	MsSPC_control05	0.672613673841853	0.769230769230769	0.34149129259117	5.42216414568824	5	3.32010597775576
chr3	MsSPC_control06	0.682837567914372	0.8	0.346266751713369	4.80990699161933	5	3.2348947416441
chr3	MsSPC_tumor01	0.69319798850701	0.8	0.325115997636447	7.23265905498489	7	4.44075264909513
chr3	MsSPC_tumor01.rfp	0.634370164786753	0.727272727272727	0.33504012885489	7.90750265254374	8	4.76109910539935
chr3	MsSPC_tumor02	0.652774904489473	0.75	0.330519051449158	9.58677227192611	9	5.23096209271406
chr3	MsSPC_tumor02.rfp	0.634558725696962	0.714285714285714	0.331022028291184	8.37163467523872	8	4.54975890928443
chr3	MsSPC_tumor03	0.609146708871797	0.6875	0.365048577205503	5.64575456016717	5	3.28379371263158
chr3	MsSPC_tumor03.rfp	0.609344789721595	0.666666666666667	0.359752055299088	5.76264432699425	6	3.34983255584583
chr3	MsSPC_tumor04	0.6237113675199	0.714285714285714	0.3572152169731	6.08535499635537	6	4.05312865857638
chr4	MsCCSP_control01	0.745584975682991	0.863636363636364	0.312879369996288	9.80998105058909	9	6.17549529999995
chr4	MsCCSP_control02	0.673537950140077	0.8	0.370670664166673	3.78493163529733	3	2.43210536731205
chr4	MsCCSP_control03	0.667528103877803	0.777777777777778	0.350233497803162	5.22645091138484	5	2.97300622286143
chr4	MsCCSP_control04	0.664885317098499	0.777777777777778	0.335118447085222	9.343090718386	9	4.70174865052572
chr4	MsCCSP_control05	0.61989096865064	1	0.433720616358253	2.19108974088153	2	2.19711778584572
chr4	MsCCSP_control06	0.634262409026842	0.75	0.390696023016769	3.34981761390742	3	2.64758966694258
chr4	MsCCSP_control07	0.625706085864396	0.75	0.396338650706401	3.2787591595031	3	2.56045797108732
chr4	MsCCSP_tumor01	0.613216811306078	0.666666666666667	0.382743047005964	3.91011487690524	4	3.04259428159456
chr4	MsCCSP_tumor02	0.613997011700788	0.714285714285714	0.354148483211633	8.55337297845638	8	4.77347985885225
chr4	MsCCSP_tumor02.rfp	0.653270462698215	0.75	0.328302634255548	8.28774297209634	8	4.7054405724041
chr4	MsCCSP_tumor03	0.589271701858075	0.692307692307692	0.373703824813212	7.20759839962823	7	3.95061486453629
chr4	MsCCSP_tumor03.rfp	0.655101099756697	0.75	0.338403112973092	7.22190522362918	7	3.9042301168366
chr4	MsCCSP_tumor04	0.629799406367278	0.75	0.354046280832642	8.05122339269127	8	4.41330349382411
chr4	MsCCSP_tumor04.rfp	0.614120032335746	0.714285714285714	0.356984631318083	6.58411348130595	6	3.72293447987279
chr4	MsHOPX_control01	0.679835639567761	0.8	0.334464055986847	7.92434804620755	8	4.33117909800043
chr4	MsHOPX_tumor01	0.620600204992424	0.714285714285714	0.344232366475001	9.45018168434544	9	4.83729492886984
chr4	MsHOPX_tumor01.rfp	0.605056195514948	0.7	0.349739969723751	8.53751128013407	8	5.05484114703314
chr4	MsKrt5_tumor01.rfp	0.590513332667659	0.666666666666667	0.354028143203524	9.47548912713781	9	5.20968921544141
chr4	MsSPC_control01	0.673464617465072	0.8	0.348699974751564	6.64207429376291	6	4.34656616583856
chr4	MsSPC_control02	0.672904984843869	0.777777777777778	0.325903220357218	7.98747953087327	8	4.71031759296182
chr4	MsSPC_control03	0.671312830430826	0.8	0.351163911975305	7.14642664766902	7	3.88154728464739
chr4	MsSPC_control04	0.645884746475556	0.75	0.357088073158038	5.8091970247105	6	3.51494600678834
chr4	MsSPC_control05	0.643650299744414	0.75	0.359303324201497	5.17159403167525	5	3.46981510786476
chr4	MsSPC_control06	0.653187870876243	0.75	0.365974379475829	4.53860582494883	4	3.14579530141945
chr4	MsSPC_tumor01	0.662220007321766	0.777777777777778	0.343986771215906	7.25055733684783	7	4.11924092684335
chr4	MsSPC_tumor01.rfp	0.61158154157367	0.714285714285714	0.348142675466255	8.15376550275732	8	4.6574897443975
chr4	MsSPC_tumor02	0.631712295977957	0.75	0.343106167808352	9.72657681836426	9	5.23955418352951
chr4	MsSPC_tumor02.rfp	0.614709625099986	0.7	0.341624933418131	8.45835720366001	8	4.66688597447068
chr4	MsSPC_tumor03	0.590378429250481	0.666666666666667	0.377784582525997	5.52969784577555	5	3.12395234531611
chr4	MsSPC_tumor03.rfp	0.588071211078303	0.666666666666667	0.372866107222231	5.63310828406281	5	3.19102382595224
chr4	MsSPC_tumor04	0.606981146270783	0.714285714285714	0.365841424833612	6.35998496844454	6	3.54629222665401
chr5	MsCCSP_control01	0.749709411651751	0.866666666666667	0.310627463036898	9.89448984272402	9	6.0041010394694
chr5	MsCCSP_control02	0.680365606785065	0.8	0.36819134520451	3.82310912578726	4	2.75293976498186
chr5	MsCCSP_control03	0.673748841963792	0.8	0.347689619469043	5.29278956393316	5	3.29450069221774
chr5	MsCCSP_control04	0.673367145819154	0.8	0.330756678528993	9.34154710733856	9	4.90396390817178
chr5	MsCCSP_control05	0.62912215771072	1	0.431457596495252	2.17765307774079	2	2.28646605466139
chr5	MsCCSP_control06	0.641703017129619	0.75	0.387722286287958	3.35354767463161	3	2.92861484542792
chr5	MsCCSP_control07	0.63680844863564	0.75	0.39177301275954	3.27974327451864	3	2.95747661029278
chr5	MsCCSP_tumor01	0.621943176130038	0.714285714285714	0.379801174353876	3.91805286949179	4	3.9396426320143
chr5	MsCCSP_tumor02	0.629185058405739	0.75	0.348572695464658	8.71541001685559	8	5.16420353006709
chr5	MsCCSP_tumor02.rfp	0.662716318920941	0.75	0.323056877048695	8.37838511126831	8	4.98405610873676
chr5	MsCCSP_tumor03	0.600242864198426	0.714285714285714	0.370879093953536	7.24800266074898	7	4.94970070455247
chr5	MsCCSP_tumor03.rfp	0.664375682385216	0.75	0.333224535071734	7.25866706290838	7	4.70793380917078
chr5	MsCCSP_tumor04	0.645917440510367	0.75	0.348210213702616	7.90412635592467	8	4.48415046394818
chr5	MsCCSP_tumor04.rfp	0.627184725723249	0.727272727272727	0.352112436977506	6.51786558793377	6	3.76607941073525
chr5	MsHOPX_control01	0.682846938441992	0.8	0.333455548561349	7.95896105080081	8	4.6569148124798
chr5	MsHOPX_tumor01	0.626529480600053	0.727272727272727	0.343872099708474	9.46646093597024	9	5.16947541345308
chr5	MsHOPX_tumor01.rfp	0.61427290479099	0.714285714285714	0.349326957167415	8.55183945702845	8	4.96402116563649
chr5	MsKrt5_tumor01.rfp	0.600368628545188	0.7	0.352496469538511	9.31806590633863	9	5.27629526261889
chr5	MsSPC_control01	0.679456190044578	0.8	0.347017154901352	6.64936435315261	6	4.51331372787028
chr5	MsSPC_control02	0.677957681800905	0.777777777777778	0.324428814629837	8.0461457155189	8	5.07499443869975
chr5	MsSPC_control03	0.681969046218461	0.8	0.345987995546001	7.13432756653797	7	4.38273989713214
chr5	MsSPC_control04	0.652619602691816	0.75	0.354260115677726	5.83157275189889	6	4.4414119629344
chr5	MsSPC_control05	0.653631760904872	0.75	0.353949730513002	5.20114746861322	5	3.27194756199152
chr5	MsSPC_control06	0.659588132195362	0.75	0.363655343552796	4.55972506554536	4	3.0455181177123
chr5	MsSPC_tumor01	0.670992388668797	0.8	0.341638203721745	7.34702082700678	7	4.38936915934264
chr5	MsSPC_tumor01.rfp	0.622517653850219	0.714285714285714	0.345185528584524	8.24674154618046	8	4.87547590585901
chr5	MsSPC_tumor02	0.641726275351812	0.75	0.342202167716942	9.79547226290872	9	5.36531693613264
chr5	MsSPC_tumor02.rfp	0.624088851754685	0.714285714285714	0.340971186990064	8.49243460912735	8	4.73699712039762
chr5	MsSPC_tumor03	0.605048922237766	0.714285714285714	0.374093694296711	5.52406971070841	5	3.27862275520615
chr5	MsSPC_tumor03.rfp	0.601508519612913	0.666666666666667	0.369424258005929	5.62916910767051	5	3.31285429097641
chr5	MsSPC_tumor04	0.616560644821307	0.714285714285714	0.364545404582072	6.20288369566689	6	3.87714666064361
chr6	MsCCSP_control01	0.765101230138557	0.875	0.292704464019403	10.5593513513514	10	5.88347256271748
chr6	MsCCSP_control02	0.695533167882386	0.8	0.357482882008995	3.84962624632697	4	3.08266165681417
chr6	MsCCSP_control03	0.688703759534074	0.8	0.336662960306755	5.32304381259612	5	3.44397704858565
chr6	MsCCSP_control04	0.688222310537157	0.8	0.317549682838426	9.51460931169403	9	4.69470829677355
chr6	MsCCSP_control05	0.64290861911586	1	0.426481675780771	2.14447071929775	2	2.91315453107628
chr6	MsCCSP_control06	0.657179876711559	0.75	0.37949953503831	3.30501255325469	3	3.05275591659516
chr6	MsCCSP_control07	0.650270295064896	0.75	0.385793788800374	3.21859256202365	3	3.0828937204735
chr6	MsCCSP_tumor01	0.628984160691966	0.714285714285714	0.371204231370588	4.09032469783188	4	3.22358268311123
chr6	MsCCSP_tumor02	0.635209706005959	0.75	0.342385597918323	8.69107263962461	8	4.83582076925602
chr6	MsCCSP_tumor02.rfp	0.674885811892225	0.75	0.311244056360734	8.52362239369923	8	4.76945740369497
chr6	MsCCSP_tumor03	0.60608886035653	0.714285714285714	0.367696590588186	7.35093307324323	7	4.35623738521703
chr6	MsCCSP_tumor03.rfp	0.671919793650423	0.777777777777778	0.324620943759376	8.33547829650184	8	4.55525433728265
chr6	MsCCSP_tumor04	0.651889602405072	0.75	0.339289596882358	8.000418671654	8	4.54484806230203
chr6	MsCCSP_tumor04.rfp	0.635435068956576	0.727272727272727	0.343834393100681	6.56217491331022	6	3.96760347696385
chr6	MsHOPX_control01	0.697195972909715	0.8	0.321109729698971	7.86912012976265	8	4.49400087520628
chr6	MsHOPX_tumor01	0.632035652933829	0.727272727272727	0.337446943124528	9.41446606763979	9	4.83974526397585
chr6	MsHOPX_tumor01.rfp	0.616277596514437	0.714285714285714	0.344941522469368	8.39209813085397	8	4.96347864477689
chr6	MsKrt5_tumor01.rfp	0.606531980145384	0.7	0.344151149869479	9.51609844304151	9	5.20425772254983
chr6	MsSPC_control01	0.692924346420327	0.8	0.338900029444432	6.29851019093978	6	4.10865176035748
chr6	MsSPC_control02	0.69133492236091	0.8	0.31475795610084	7.72944289732186	7	4.64611587354407
chr6	MsSPC_control03	0.692017954784246	0.8	0.339332185756812	7.05738011214166	7	4.17173253495396
chr6	MsSPC_control04	0.667562387941562	0.75	0.346146255622102	5.58811914412792	5	3.90270951332326
chr6	MsSPC_control05	0.660592319213085	0.75	0.34850428690031	5.35314765210212	5	3.5933537978165
chr6	MsSPC_control06	0.666945051460155	0.777777777777778	0.357368727993718	4.73709669323201	4	3.49317980995635
chr6	MsSPC_tumor01	0.67982093193066	0.8	0.333584994515697	7.29169073118371	7	4.31645843940759
chr6	MsSPC_tumor01.rfp	0.625867099165206	0.714285714285714	0.341455195322182	8.08312366783069	8	4.69641970400758
chr6	MsSPC_tumor02	0.648830637138531	0.75	0.334546970547299	9.69448299871073	9	5.14961524870609
chr6	MsSPC_tumor02.rfp	0.629681079769776	0.714285714285714	0.333967890567531	8.47150640202517	8	4.62310489051748
chr6	MsSPC_tumor03	0.606289043550289	0.714285714285714	0.371444450687973	5.6365859722796	5	3.54032137828261
chr6	MsSPC_tumor03.rfp	0.601558169468345	0.666666666666667	0.366708565418243	5.75226901588406	5	3.58645668268991
chr6	MsSPC_tumor04	0.625114423931995	0.75	0.357696261366184	6.52252785430545	6	3.86311608401422
chr7	MsCCSP_control01	0.731639206351291	0.857142857142857	0.321364409811504	9.52412710370874	9	5.40884080483692
chr7	MsCCSP_control02	0.656573301484024	0.75	0.377259189341287	3.77703882721065	3	2.25387674262203
chr7	MsCCSP_control03	0.649495371911336	0.75	0.356624259668313	5.24271812236189	5	2.70002980711067
chr7	MsCCSP_control04	0.650317248798896	0.769230769230769	0.339568064863093	9.33146517950942	9	4.55529013132098
chr7	MsCCSP_control05	0.605742435760933	0.8	0.437464487435748	2.17880821905499	2	1.93467332985074
chr7	MsCCSP_control06	0.619355527836355	0.75	0.394865116233162	3.34925731984786	3	2.23633753250072
chr7	MsCCSP_control07	0.612897591564907	0.714285714285714	0.399335538819001	3.28044453881469	3	2.23811271451439
chr7	MsCCSP_tumor01	0.592754039976457	0.666666666666667	0.389465156203043	3.8175907207759	3	2.30563409474797
chr7	MsCCSP_tumor02	0.598014884667848	0.7	0.357869380499786	8.71546826254308	8	4.50638071495078
chr7	MsCCSP_tumor02.rfp	0.638462723666665	0.75	0.333747251938591	8.30270761627074	8	4.3555644749837
chr7	MsCCSP_tumor03	0.568154622042992	0.666666666666667	0.378540287507486	7.10820531986303	7	3.62078063729505
chr7	MsCCSP_tumor03.rfp	0.641523698573807	0.75	0.342128408399119	7.6295468136077	7	3.86425700276505
chr7	MsCCSP_tumor04	0.615481404373012	0.714285714285714	0.355485976932072	8.18282019507332	8	4.37888221133504
chr7	MsCCSP_tumor04.rfp	0.595736525898698	0.666666666666667	0.359181382813805	6.63903899470875	6	3.6502157365863
chr7	MsHOPX_control01	0.666392866081649	0.777777777777778	0.338455705313719	7.91653484903309	8	3.8488512760469
chr7	MsHOPX_tumor01	0.593543934837463	0.692307692307692	0.354768700275619	9.44771616639661	9	4.66260452234609
chr7	MsHOPX_tumor01.rfp	0.577957728611028	0.666666666666667	0.358666420497887	8.59076302684675	8	4.7780970287804
chr7	MsKrt5_tumor01.rfp	0.570809997367534	0.666666666666667	0.357587264254478	9.5328710317769	9	5.06392584949434
chr7	MsSPC_control01	0.661210273964804	0.777777777777778	0.353104774325618	6.71142711233562	6	3.47535486598237
chr7	MsSPC_control02	0.66053862717579	0.75	0.331608928257346	8.04861364473781	8	4.06997963734483
chr7	MsSPC_control03	0.65985459411592	0.777777777777778	0.352015414601598	7.14440617694874	7	3.502040395959
chr7	MsSPC_control04	0.63193043719248	0.75	0.361867401350391	5.78666227409639	5	3.18726392391118
chr7	MsSPC_control05	0.632817457561556	0.75	0.363004930993607	5.06522884487823	5	2.77499010489324
chr7	MsSPC_control06	0.641465957315973	0.75	0.369670531479958	4.44083275537267	4	2.49036030060986
chr7	MsSPC_tumor01	0.647560287093622	0.75	0.347816576119265	7.24803427304374	7	3.66024920631596
chr7	MsSPC_tumor01.rfp	0.59527980644463	0.666666666666667	0.350770497484358	8.20346203032426	8	4.14977024935856
chr7	MsSPC_tumor02	0.616053864666083	0.714285714285714	0.348237060307674	9.74238050411265	9	4.58371359057534
chr7	MsSPC_tumor02.rfp	0.598087029867245	0.666666666666667	0.347547774616985	8.46824623087132	8	4.07063388733517
chr7	MsSPC_tumor03	0.572672780513643	0.666666666666667	0.379008772790197	5.45878706775582	5	2.79090635918205
chr7	MsSPC_tumor03.rfp	0.570779673921428	0.666666666666667	0.374628159069296	5.58005948870913	5	2.86169538461729
chr7	MsSPC_tumor04	0.594539181706377	0.666666666666667	0.366994080303037	6.31224168706181	6	3.11554436721033
chr8	MsCCSP_control01	0.752623929531657	0.866666666666667	0.303903223330093	10.0512820996196	9	5.53972378001468
chr8	MsCCSP_control02	0.681342930523772	0.8	0.36617880215635	3.82380915187509	4	2.4347038559085
chr8	MsCCSP_control03	0.675565322854384	0.785714285714286	0.344746340533335	5.30749044034535	5	2.71787329529785
chr8	MsCCSP_control04	0.670878538435299	0.785714285714286	0.331103808105748	9.47781428605591	9	4.44435179704105
chr8	MsCCSP_control05	0.626639802613527	1	0.43186274687944	2.18746256396214	2	2.00686361301575
chr8	MsCCSP_control06	0.640521565255928	0.75	0.387743015278816	3.36158709929886	3	2.28257485777774
chr8	MsCCSP_control07	0.632495459487972	0.75	0.393423698390599	3.29819947550538	3	2.28914167314633
chr8	MsCCSP_tumor01	0.614941943305525	0.666666666666667	0.379855419852393	3.99685184142132	4	2.54789504543701
chr8	MsCCSP_tumor02	0.61922132625984	0.727272727272727	0.350653283956041	8.77931121383143	8	4.48263169883099
chr8	MsCCSP_tumor02.rfp	0.658066890566436	0.75	0.323045303394639	8.59086944374731	8	4.46504895921858
chr8	MsCCSP_tumor03	0.600627623894023	0.714285714285714	0.367208703492676	7.27976929289142	7	3.58502631417539
chr8	MsCCSP_tumor03.rfp	0.66838654039452	0.769230769230769	0.32632820592069	7.94928242958964	8	3.79732307111383
chr8	MsCCSP_tumor04	0.633652526659243	0.75	0.351489695135169	8.21117315650396	8	4.237411373112
chr8	MsCCSP_tumor04.rfp	0.61750672238012	0.714285714285714	0.354769343273381	6.6785337833264	6	3.5565527593297
chr8	MsHOPX_control01	0.684720932190392	0.8	0.330381528761617	7.95803713402694	8	3.92644913521967
chr8	MsHOPX_tumor01	0.625532113777344	0.727272727272727	0.34095476742529	9.47034616520589	9	4.33132104143662
chr8	MsHOPX_tumor01.rfp	0.610525760949428	0.7	0.346975960210671	8.52645005736429	8	4.48029372863712
chr8	MsKrt5_tumor01.rfp	0.595102486364949	0.6875	0.351464151531113	9.6251562382135	9	5.00837233988808
chr8	MsSPC_control01	0.686186897138025	0.8	0.343792886615261	6.66518680702605	6	3.48842364150104
chr8	MsSPC_control02	0.684922593824784	0.8	0.320156737117057	8.06962606632879	8	4.12959839191092
chr8	MsSPC_control03	0.682569444876864	0.8	0.343616066739605	7.14661601639199	7	3.60867047941438
chr8	MsSPC_control04	0.654022138251669	0.75	0.352373748269248	5.80405663913429	6	3.13154665374791
chr8	MsSPC_control05	0.654808569184362	0.75	0.35057375661965	5.24914396773154	5	2.91968364667378
chr8	MsSPC_control06	0.662738172312232	0.75	0.358888226995461	4.60900852226291	4	2.66197047130515
chr8	MsSPC_tumor01	0.669596618687019	0.777777777777778	0.338826038553055	7.37336576611516	7	3.77996154744837
chr8	MsSPC_tumor01.rfp	0.618531536489338	0.714285714285714	0.344559071287635	8.24075151850644	8	4.27972406153197
chr8	MsSPC_tumor02	0.644037905816964	0.75	0.338448559137175	9.84091948903969	10	4.62432115653503
chr8	MsSPC_tumor02.rfp	0.626710637602108	0.714285714285714	0.337074004419495	8.54470865668276	8	4.09461538749235
chr8	MsSPC_tumor03	0.595338827172123	0.666666666666667	0.375552136473527	5.59715757800906	5	2.94643360967844
chr8	MsSPC_tumor03.rfp	0.592258501325344	0.666666666666667	0.371133585056375	5.70240266989253	5	3.0245684900317
chr8	MsSPC_tumor04	0.625465962468371	0.727272727272727	0.353390581045014	6.83291069376112	7	3.36075544175504
chr9	MsCCSP_control01	0.750679589085522	0.866666666666667	0.308217116309817	10.4285162478341	10	19.9223797212747
chr9	MsCCSP_control02	0.674877159575381	0.8	0.368512974709579	4.09897850263132	4	17.5168859289452
chr9	MsCCSP_control03	0.673094425539765	0.777777777777778	0.346625053188112	5.5760297221546	5	16.3456553376744
chr9	MsCCSP_control04	0.667154932526381	0.785714285714286	0.332441270579381	9.69026550436064	9	15.6435163612368
chr9	MsCCSP_control05	0.622845838911134	1	0.433103027513275	2.37566486637108	2	14.0250058195498
chr9	MsCCSP_control06	0.636699377049224	0.75	0.389311702657869	3.57514826806343	3	16.0705644848574
chr9	MsCCSP_control07	0.629331228059939	0.75	0.394538222380474	3.49146448752154	3	15.0809250816075
chr9	MsCCSP_tumor01	0.62307407213147	0.714285714285714	0.37940351226137	4.21159168753297	4	18.5566928998216
chr9	MsCCSP_tumor02	0.637504991536543	0.75	0.346860327285641	8.67965959650465	8	18.8842876611785
chr9	MsCCSP_tumor02.rfp	0.661633377267338	0.75	0.321302083257065	8.82936729998845	8	18.3461207112681
chr9	MsCCSP_tumor03	0.61690288684767	0.75	0.364354483681845	7.5770654615	7	20.0108787861294
chr9	MsCCSP_tumor03.rfp	0.665133326230758	0.75	0.329417826823916	7.88181651530691	7	17.0262629567834
chr9	MsCCSP_tumor04	0.643985654654376	0.75	0.347332921562129	8.41888459305067	8	17.1907660192601
chr9	MsCCSP_tumor04.rfp	0.625280519661355	0.714285714285714	0.350943259526605	6.89522991052893	6	17.0469773275867
chr9	MsHOPX_control01	0.681928338366396	0.8	0.331861033169884	8.23416364546186	8	17.0141576277922
chr9	MsHOPX_tumor01	0.634068036968184	0.75	0.341932549371325	9.76313448851482	9	17.4643755381253
chr9	MsHOPX_tumor01.rfp	0.616096120132938	0.714285714285714	0.347567770835739	8.8354294767517	8	17.0443513280301
chr9	MsKrt5_tumor01.rfp	0.601545158938434	0.7	0.35230448242644	9.86614918591443	9	18.446623732244
chr9	MsSPC_control01	0.681013075637873	0.8	0.34566121124195	6.7830503421237	6	13.5770346258738
chr9	MsSPC_control02	0.67970179700136	0.777777777777778	0.322355808265056	8.27664572688891	8	16.6513542128517
chr9	MsSPC_control03	0.675597626112862	0.8	0.347437995705358	7.43063814919264	7	17.7603158924005
chr9	MsSPC_control04	0.647642990508482	0.75	0.356286413244663	5.9743019442695	5	16.1241125936026
chr9	MsSPC_control05	0.650122385903126	0.75	0.352677434922521	5.51825371253309	5	17.0766817104872
chr9	MsSPC_control06	0.657071077716449	0.75	0.361059676331841	4.89932053792282	4	18.5753371328252
chr9	MsSPC_tumor01	0.668482729516429	0.785714285714286	0.340877592971841	7.63934537174159	7	17.9880776123527
chr9	MsSPC_tumor01.rfp	0.624574190110437	0.727272727272727	0.344213770554019	8.54516075933301	8	19.4718647547923
chr9	MsSPC_tumor02	0.647308340919238	0.75	0.339294465140095	10.1422632108786	10	18.9763025411602
chr9	MsSPC_tumor02.rfp	0.63176632930351	0.727272727272727	0.338011117608826	8.81604475367829	8	18.0377467031804
chr9	MsSPC_tumor03	0.601775141223502	0.7	0.374620523064277	5.83176635226004	5	17.3699234326369
chr9	MsSPC_tumor03.rfp	0.600142419932641	0.666666666666667	0.369294766523244	5.94103904660088	5	17.3072701261955
chr9	MsSPC_tumor04	0.618066843111902	0.727272727272727	0.362906665855902	6.83263082080614	6	18.1229935927014
chrM	MsCCSP_control01	0.00436529372181377	0.00378548895899054	0.00355488443822555	1214.50197628459	1403	463.179373397093
chrM	MsCCSP_control02	0.00966273491912912	0.0085348506401138	0.00703478008865606	645.95670995671	692	213.884889470741
chrM	MsCCSP_control03	0.00832667188079516	0.00746268656716418	0.00633117485121699	921.863829787234	1025	311.513808960862
chrM	MsCCSP_control04	0.0055151088836492	0.00488203082948842	0.00389162440019098	988.8125	1125.5	358.688385652633
chrM	MsCCSP_control05	0.0128825503941508	0.00975609756097561	0.0115804106434378	567.136563876652	638	192.781787394382
chrM	MsCCSP_control06	0.0114733743292922	0.00870646766169154	0.0112739308205659	634.173333333333	697	202.519512287441
chrM	MsCCSP_control07	0.0127515573515131	0.00941176470588235	0.012830684921273	682.794759825328	752	248.457693049698
chrM	MsCCSP_tumor01	0.00922331698215832	0.00652741514360313	0.0097455235394978	856.953974895398	925	333.591284256068
chrM	MsCCSP_tumor02	0.00671276246336805	0.00579896907216495	0.00897647253041667	1229.77821011673	1463	503.880102453298
chrM	MsCCSP_tumor02.rfp	0.00616294630772597	0.00557361940955359	0.00499799218272937	530.171875	600.5	245.596596047657
chrM	MsCCSP_tumor03	0.00859695204741844	0.00755686685067098	0.00548027557194737	948.756302521008	1055.5	332.219526486141
chrM	MsCCSP_tumor03.rfp	0.00649747590975147	0.00573204045527793	0.00555096753549821	621.731092436975	683	222.239225554745
chrM	MsCCSP_tumor04	0.00626435360750891	0.00528401585204756	0.00538909529208958	552.621399176955	608	215.882076479595
chrM	MsCCSP_tumor04.rfp	0.00828213616830505	0.00619678017030345	0.0136112297101177	452.717948717949	478	154.129110704596
chrM	MsHOPX_control01	0.00975258129837973	0.00766283524904215	0.0109533840631218	236.7004048583	258	91.7951463982407
chrM	MsHOPX_tumor01	0.0068288428753298	0.00617794695464598	0.00440176959354382	1014.124	1162.5	392.383117203922
chrM	MsHOPX_tumor01.rfp	0.00904899701199556	0.0074607876269805	0.0138072925991518	964.629770992366	1084.5	435.862438701072
chrM	MsKrt5_tumor01.rfp	0.00725431372217214	0.0067618332081142	0.0064816604840018	1025.62055335968	1151	443.271350720452
chrM	MsSPC_control01	0.00890458790569601	0.0078740157480315	0.00694373524647273	454.130801687764	487	164.815265680923
chrM	MsSPC_control02	0.0132285232301646	0.0119047619047619	0.010625567490285	383.768240343348	405	134.747072851876
chrM	MsSPC_control03	0.00917011479182506	0.00844327411902566	0.00556035401032694	924.286885245902	1054	360.941441154271
chrM	MsSPC_control04	0.0127101025442007	0.00963648949821031	0.0116846942958027	955.734513274336	1058	294.83496001659
chrM	MsSPC_control05	0.0111552095184264	0.00802043866363903	0.0110626479668056	659.58407079646	720	212.052225251285
chrM	MsSPC_control06	0.00896368091772196	0.00718169891662073	0.00814434933406332	526.529914529915	591.5	180.301539161558
chrM	MsSPC_tumor01	0.00789347186194659	0.00742383081458144	0.00534117413988021	968.2375	1067.5	361.721728169192
chrM	MsSPC_tumor01.rfp	0.00670505312188154	0.00628931812715973	0.00484523873673984	1381.67073170732	1554.5	477.928627278722
chrM	MsSPC_tumor02	0.0074254413747575	0.00706214689265537	0.00670993982001805	1342.60700389105	1570	545.750741909257
chrM	MsSPC_tumor02.rfp	0.00649023010381866	0.00619578686493185	0.00459769828429242	1314.18623481781	1510	477.300085564279
chrM	MsSPC_tumor03	0.00932401859334527	0.00843289242876784	0.00647353827614725	543.5	609.5	194.712267432249
chrM	MsSPC_tumor03.rfp	0.0087095253546805	0.00774194837369136	0.00582863705818653	698.936440677966	776	244.507721207851
chrM	MsSPC_tumor04	0.00992762207593439	0.00827814569536424	0.012144115263073	556.944680851064	611	186.646842821573
chrX	MsCCSP_control01	0.780130092343422	0.875	0.283052030855291	6.33929813796635	6	5.17717451553714
chrX	MsCCSP_control02	0.70740055594805	1	0.370267740956748	2.65158910273276	2	2.59903099790769
chrX	MsCCSP_control03	0.700347302124628	0.8	0.3347662476305	3.80002842524161	3	3.03118912783245
chrX	MsCCSP_control04	0.705418218094784	0.769230769230769	0.272115324257129	9.04413589971262	9	4.92305627335143
chrX	MsCCSP_control05	0.655105555705038	1	0.415429850636355	2.03802868000865	2	2.08667808291487
chrX	MsCCSP_control06	0.665010862216858	0.75	0.36223909944793	3.11085575420934	3	2.62243727156292
chrX	MsCCSP_control07	0.656881516706761	0.75	0.3697360275461	3.00823834894832	3	2.54230199611555
chrX	MsCCSP_tumor01	0.605714917870446	0.666666666666667	0.356466260494165	3.99572398595711	4	3.17843784903726
chrX	MsCCSP_tumor02	0.598624194352161	0.647058823529412	0.315080386280518	7.95862373305665	8	5.15875628999526
chrX	MsCCSP_tumor02.rfp	0.677941119232717	0.75	0.282595739563541	7.79771042003613	7	5.21126895807594
chrX	MsCCSP_tumor03	0.571640878890669	0.6	0.333321804294626	7.22138237403784	7	4.64630325576069
chrX	MsCCSP_tumor03.rfp	0.679225536034008	0.75	0.294345128285162	6.97366234429341	7	4.55722546502484
chrX	MsCCSP_tumor04	0.652525619381641	0.75	0.372692227682757	3.92460844806015	4	3.72256103689448
chrX	MsCCSP_tumor04.rfp	0.627306675594033	0.75	0.385020233062616	3.35604301656452	3	3.3394121015577
chrX	MsHOPX_control01	0.724245468150757	0.8	0.304881975977444	5.25972125814104	5	4.18563327015729
chrX	MsHOPX_tumor01	0.59678347145721	0.642857142857143	0.314215447051177	8.03045711709388	8	4.95346224439072
chrX	MsHOPX_tumor01.rfp	0.587515514707826	0.625	0.326168764575784	6.79230471375122	6	5.00907194599551
chrX	MsKrt5_tumor01.rfp	0.564307239525173	0.6	0.315171050774387	9.00111594832139	9	5.77863991364663
chrX	MsSPC_control01	0.72421154461756	1	0.366365210787038	3.0283665376995	3	3.19078540165108
chrX	MsSPC_control02	0.703754005256363	0.75	0.281357099664486	7.09902527676182	7	4.90588281435111
chrX	MsSPC_control03	0.721206148683969	0.8	0.288620513887215	6.52968851899009	6	4.36180416313624
chrX	MsSPC_control04	0.686838872110657	0.75	0.315055114952081	5.0056999370341	5	3.50400972713309
chrX	MsSPC_control05	0.699235306088143	1	0.373549407030806	2.90609739062014	3	2.72928151388854
chrX	MsSPC_control06	0.690367120768186	0.75	0.337899905459102	3.84449645443232	3	3.16863456882298
chrX	MsSPC_tumor01	0.689314052589823	0.75	0.323328778171358	4.85171993937954	4	3.91523992229381
chrX	MsSPC_tumor01.rfp	0.617329226524738	0.666666666666667	0.351787393903156	4.71798694288799	4	4.06259381825897
chrX	MsSPC_tumor02	0.631642331855375	0.714285714285714	0.345747283248027	5.46402425630444	5	4.50442785174597
chrX	MsSPC_tumor02.rfp	0.616067361026888	0.666666666666667	0.36192324481945	4.45130614481486	4	3.94091895408516
chrX	MsSPC_tumor03	0.593419589176955	0.666666666666667	0.405558075105014	3.04291852927656	3	2.8713380936131
chrX	MsSPC_tumor03.rfp	0.591769147126967	0.666666666666667	0.400968373314296	3.10464451253253	3	2.99929745075938
chrX	MsSPC_tumor04	0.600354033504937	0.666666666666667	0.333083767339075	5.91148300789344	6	3.95529898677913
chrY	MsCCSP_control01	0.754749416221322	1	0.337754144472398	3.67061681200972	2	9.0403863275043
chrY	MsCCSP_control02	0.686267126340158	1	0.442963087657445	1.48848194840649	1	2.37916522048573
chrY	MsCCSP_control03	0.671958101078423	1	0.427654735937598	1.73174399298268	1	3.28413026912218
chrY	MsCCSP_control04	0.687106346458746	1	0.434055793083063	3.5461842272901	1	9.33118632618744
chrY	MsCCSP_control05	0.653429151195856	1	0.422686893737493	3.3187414500684	1	4.50396938662317
chrY	MsCCSP_control06	0.656060019217905	1	0.424638731177209	3.56003624830086	1	5.6388673205444
chrY	MsCCSP_control07	0.630584945803584	0.857142857142857	0.423900315559937	4.35300261096606	1	6.87731609072907
chrY	MsCCSP_tumor01	0.607101445746425	1	0.472248372166217	1.65538164517686	1	3.32511326958826
chrY	MsCCSP_tumor02	0.634279230280248	0.875	0.42335001805405	5.78395222020254	1	11.1019156910986
chrY	MsCCSP_tumor02.rfp	0.682138710911916	1	0.408711226782363	5.72851020922612	1	11.2458722801854
chrY	MsCCSP_tumor03	0.605868423906579	0.833333333333333	0.430394698663447	18.1879505664264	2	42.1144914235792
chrY	MsCCSP_tumor03.rfp	0.684674114426607	0.933333333333333	0.408381518036095	16.6114285714286	2	38.7577414958273
chrY	MsCCSP_tumor04	0.577224230213445	0.666666666666667	0.419469953275577	2.6809994622099	2	5.50017796970661
chrY	MsCCSP_tumor04.rfp	0.552768856052478	0.6	0.42595461495578	2.48402582793775	2	5.3069688967806
chrY	MsHOPX_control01	0.615487453583557	0.733333333333333	0.400250129746367	5.97926472850331	2	12.4791458140938
chrY	MsHOPX_tumor01	0.512825150609749	0.5	0.434359469894519	4.56888967876661	2	10.7788080980515
chrY	MsHOPX_tumor01.rfp	0.461807629047933	0.482758620689655	0.434572539489621	4.25428089074685	2	9.70405309673263
chrY	MsKrt5_tumor01.rfp	0.60762319421986	0.818181818181818	0.431911179356541	5.16323024054983	1	10.6384983254326
chrY	MsSPC_control01	0.708857794277575	1	0.391972417716706	2.31090711677031	2	5.04724938050174
chrY	MsSPC_control02	0.714597199918885	1	0.401624530936274	4.88030534351145	1	8.78235930549864
chrY	MsSPC_control03	0.700135592656461	1	0.410912297548893	5.74144299433637	1	11.5184849846193
chrY	MsSPC_control04	0.661618790670386	0.923076923076923	0.416357070426325	5.62399694306458	1	10.7295430308735
chrY	MsSPC_control05	0.703071994918992	1	0.399113548009998	2.08856857076305	1	4.07178719953646
chrY	MsSPC_control06	0.691182816055222	1	0.43190906672214	1.63899670297567	1	3.24418099280688
chrY	MsSPC_tumor01	0.713219615803974	1	0.397458088699989	2.04886602219505	1	4.47529606045763
chrY	MsSPC_tumor01.rfp	0.550147950726729	0.6	0.430037441959141	2.40521001653232	2	5.16217696004786
chrY	MsSPC_tumor02	0.570915585740571	0.666666666666667	0.41402104240379	2.93753712841879	2	6.25614148493798
chrY	MsSPC_tumor02.rfp	0.530188801686262	0.5	0.417290654973333	2.90619048757361	2	6.02083439936469
chrY	MsSPC_tumor03	0.497928604255071	0.5	0.438270523169586	2.31847880375508	2	5.02324944436303
chrY	MsSPC_tumor03.rfp	0.504219315307084	0.5	0.434049097778516	2.37142154693416	2	5.16019881912996
chrY	MsSPC_tumor04	0.66205966537206	0.916666666666667	0.415890090649691	5.60152135751902	1	10.3416508873336
